02. decoder_3_8/decoder_3_8_tb.vcd
$date
	Wed Feb 18 21:26:33 2026
$end
$version
	Icarus Verilog
$end
$timescale
	1ns
$end
$scope module decoer_3_8_tb $end
$var wire 1 ! Y7 $end
$var wire 1 " Y6 $end
$var wire 1 # Y5 $end
$var wire 1 $ Y4 $end
$var wire 1 % Y3 $end
$var wire 1 & Y2 $end
$var wire 1 ' Y1 $end
$var wire 1 ( Y0 $end
$var wire 8 ) Y [7:0] $end
$var reg 1 * A0 $end
$var reg 1 + A1 $end
$var reg 1 , A2 $end
$var integer 32 - err [31:0] $end
$scope module decoder_3_8_inst0 $end
$var wire 1 * A0 $end
$var wire 1 + A1 $end
$var wire 1 , A2 $end
$var reg 1 ( Y0 $end
$var reg 1 ' Y1 $end
$var reg 1 & Y2 $end
$var reg 1 % Y3 $end
$var reg 1 $ Y4 $end
$var reg 1 # Y5 $end
$var reg 1 " Y6 $end
$var reg 1 ! Y7 $end
$upscope $end
$scope task check $end
$var reg 3 . code [2:0] $end
$var reg 8 / exp [7:0] $end
$upscope $end
$upscope $end
$enddefinitions $end
#0
$dumpvars
b1 /
b0 .
b0 -
0,
0+
0*
b1 )
1(
0'
0&
0%
0$
0#
0"
0!
$end
#10
1'
b10 )
0(
1*
b10 /
b1 .
#20
1&
b100 )
0'
1+
0*
b100 /
b10 .
#30
1%
b1000 )
0&
1*
b1000 /
b11 .
#40
1$
b10000 )
0%
1,
0+
0*
b10000 /
b100 .
#50
1#
b100000 )
0$
1*
b100000 /
b101 .
#60
1"
b1000000 )
0#
1+
0*
b1000000 /
b110 .
#70
1!
b10000000 )
0"
1*
b10000000 /
b111 .
